…
### How many aisles are there, and which aisles are the most items ordered from?

``` r
instacart %>%
  group_by(aisle_id, aisle) %>%
  summarize(item_sum = sum(product_id)) %>%
  arrange(desc(item_sum))
```

    ## `summarise()` has grouped output by 'aisle_id'. You can override using the `.groups` argument.

    ## # A tibble: 134 × 3
    ## # Groups:   aisle_id [134]
    ##    aisle_id aisle                           item_sum
    ##       <int> <chr>                              <dbl>
    ##  1       24 fresh fruits                  4119439266
    ##  2       83 fresh vegetables              4007541101
    ##  3      123 packaged vegetables fruits    2167743474
    ##  4      120 yogurt                        1468727336
    ##  5       21 packaged cheese               1003832255
    ##  6      115 water seltzer sparkling water  963861086
    ##  7      107 chips pretzels                 807454481
    ##  8       84 milk                           738884407
    ##  9       91 soy lactosefree                679679179
    ## 10       31 refrigerated                   595356295
    ## # … with 124 more rows
…
